{
    "boxShadow": "{{appsmith.theme.boxShadow.appBoxShadow}}",
    "mobileBottomRow": 18,
    "widgetName": "Container3",
    "borderColor": "#E0DEDE",
    "isCanvas": true,
    "displayName": "Container",
    "iconSVG": "/static/media/icon.daebf68875b6c8e909e9e8ac8bee0c02.svg",
    "searchTags": [
        "div",
        "parent",
        "group"
    ],
    "topRow": 0,
    "bottomRow": 13,
    "parentRowSpace": 10,
    "type": "CONTAINER_WIDGET",
    "hideCard": false,
    "shouldScrollContents": true,
    "mobileRightColumn": 25,
    "animateLoading": true,
    "parentColumnSpace": 16.541290283203125,
    "leftColumn": 1,
    "dynamicBindingPathList": [
        {"key": "borderRadius"},
        {"key": "boxShadow"}
    ],
    "children": [{
        "boxShadow": "{{appsmith.theme.boxShadow.appBoxShadow}}",
        "mobileBottomRow": 100,
        "widgetName": "Canvas3",
        "displayName": "Canvas",
        "topRow": 0,
        "bottomRow": 130,
        "parentRowSpace": 1,
        "type": "CANVAS_WIDGET",
        "canExtend": false,
        "hideCard": true,
        "minHeight": 100,
        "mobileRightColumn": 396.990966796875,
        "parentColumnSpace": 1,
        "leftColumn": 0,
        "dynamicBindingPathList": [
            {"key": "borderRadius"},
            {"key": "boxShadow"}
        ],
        "key": "9coi59ihbj",
        "isDeprecated": false,
        "rightColumn": 396.990966796875,
        "detachFromLayout": true,
        "dynamicHeight": "AUTO_HEIGHT",
        "widgetId": "wbbz35uidg",
        "containerStyle": "none",
        "minWidth": 450,
        "isVisible": true,
        "version": 1,
        "parentId": "j1u4dx7zs1",
        "renderMode": "CANVAS",
        "isLoading": false,
        "mobileTopRow": 0,
        "responsiveBehavior": "fill",
        "borderRadius": "{{appsmith.theme.borderRadius.appBorderRadius}}",
        "mobileLeftColumn": 0,
        "maxDynamicHeight": 9000,
        "minDynamicHeight": 4,
        "flexLayers": []
    }],
    "borderWidth": "1",
    "flexVerticalAlignment": "stretch",
    "key": "wo4mfv8au4",
    "backgroundColor": "#FFFFFF",
    "isDeprecated": false,
    "rightColumn": 63,
    "dynamicHeight": "AUTO_HEIGHT",
    "widgetId": "j1u4dx7zs1",
    "containerStyle": "card",
    "minWidth": 450,
    "isVisible": true,
    "version": 1,
    "parentId": "550bxfskbk",
    "tags": ["Layout"],
    "renderMode": "CANVAS",
    "isLoading": false,
    "mobileTopRow": 8,
    "responsiveBehavior": "fill",
    "originalTopRow": 0,
    "borderRadius": "{{appsmith.theme.borderRadius.appBorderRadius}}",
    "mobileLeftColumn": 1,
    "maxDynamicHeight": 9000,
    "originalBottomRow": 13,
    "minDynamicHeight": 10
}