{
    "boxShadow": "none",
    "iconSVG": "/static/media/icon.a7b19dc8b31d68fcff57f1d2c0084a18.svg",
    "labelText": "Департамент",
    "topRow": 5,
    "labelWidth": 5,
    "type": "SELECT_WIDGET",
    "serverSideFiltering": false,
    "defaultOptionValue": "{{ ((options, serverSideFiltering) => ( ApplicationInit.initDefaultDepartments()))(SelectDepartement.options, SelectDepartement.serverSideFiltering) }}",
    "animateLoading": true,
    "leftColumn": 1,
    "dynamicBindingPathList": [
        {"key": "accentColor"},
        {"key": "borderRadius"},
        {"key": "sourceData"},
        {"key": "defaultOptionValue"},
        {"key": "isDisabled"}
    ],
    "placeholderText": "Вибрати",
    "isDisabled": "{{ApplicationInit.state === 'Відхилена'|| ApplicationInit.state === 'Погоджена' || !ApplicationInit.disable()}}",
    "isRequired": true,
    "dynamicHeight": "FIXED",
    "accentColor": "{{appsmith.theme.colors.primaryColor}}",
    "isVisible": true,
    "version": 1,
    "tags": [
        "Suggested",
        "Select"
    ],
    "isLoading": false,
    "borderRadius": "{{appsmith.theme.borderRadius.appBorderRadius}}",
    "originalBottomRow": 12,
    "mobileBottomRow": 8,
    "widgetName": "SelectDepartement",
    "isFilterable": true,
    "dynamicPropertyPathList": [
        {"key": "sourceData"},
        {"key": "isDisabled"}
    ],
    "displayName": "Select",
    "searchTags": ["dropdown"],
    "bottomRow": 12,
    "parentRowSpace": 10,
    "hideCard": false,
    "mobileRightColumn": 21,
    "parentColumnSpace": 15.849347114562988,
    "dynamicTriggerPathList": [{"key": "onOptionChange"}],
    "labelPosition": "Top",
    "sourceData": "{{GetDepartments.data}}",
    "key": "dmgxws3d2f",
    "labelTextSize": "0.875rem",
    "isDeprecated": false,
    "rightColumn": 21,
    "widgetId": "55omuwm5f0",
    "optionValue": "id",
    "minWidth": 450,
    "parentId": "vmk6ex1w15",
    "labelAlignment": "left",
    "renderMode": "CANVAS",
    "mobileTopRow": 1,
    "optionLabel": "name",
    "responsiveBehavior": "fill",
    "originalTopRow": 5,
    "mobileLeftColumn": 1,
    "maxDynamicHeight": 9000,
    "onOptionChange": "{{GetSubdivisionByDepId.run().then(() => {\n  ApplicationInit.initCoordinations();\n});}}",
    "minDynamicHeight": 4
}