{
    "boxShadow": "none",
    "mobileBottomRow": 34,
    "widgetName": "FilePicker1CopyCopyCopy",
    "buttonColor": "#22c55e",
    "dynamicPropertyPathList": [
        {"key": "isDisabled"},
        {"key": "onFilesSelected"}
    ],
    "iconSVG": "/static/media/icon.715769b31db833b32f40d9c90ec02de3.svg",
    "displayName": "FilePicker",
    "topRow": 4,
    "searchTags": ["upload"],
    "bottomRow": 8,
    "parentRowSpace": 10,
    "type": "FILE_PICKER_WIDGET_V2",
    "allowedFileTypes": ["image/*"],
    "hideCard": false,
    "mobileRightColumn": 33,
    "animateLoading": true,
    "parentColumnSpace": 16.522960662841797,
    "dynamicTriggerPathList": [{"key": "onFilesSelected"}],
    "leftColumn": 0,
    "dynamicBindingPathList": [
        {"key": "borderRadius"},
        {"key": "isDisabled"}
    ],
    "isDisabled": "{{!CheckboxEmploymentOrder.isChecked||ApplicationInit.state === 'Відхилена'|| ApplicationInit.state === 'Погоджена'||!ApplicationInit.disable() }}",
    "key": "m9rmer2a51",
    "onFilesSelected": "{{FilesInit.onOrderUpload()}}",
    "isRequired": false,
    "isDeprecated": false,
    "rightColumn": 31,
    "isDefaultClickDisabled": true,
    "widgetId": "nisgng0xtt",
    "minWidth": 120,
    "isVisible": true,
    "label": "Додати файли",
    "maxFileSize": 5,
    "dynamicTyping": true,
    "version": 1,
    "fileDataType": "Base64",
    "parentId": "duxdbrw8ne",
    "tags": ["Inputs"],
    "isLoading": false,
    "selectedFiles": [],
    "renderMode": "CANVAS",
    "mobileTopRow": 30,
    "responsiveBehavior": "hug",
    "originalTopRow": 40,
    "borderRadius": "{{appsmith.theme.borderRadius.appBorderRadius}}",
    "mobileLeftColumn": 17,
    "originalBottomRow": 44,
    "files": [],
    "maxNumFiles": 1
}