{
    "boxShadow": "none",
    "mobileBottomRow": 8,
    "widgetName": "Text15",
    "displayName": "Text",
    "iconSVG": "/static/media/icon.a47d6d5dbbb718c4dc4b2eb4f218c1b7.svg",
    "searchTags": [
        "typography",
        "paragraph",
        "label"
    ],
    "topRow": 0,
    "bottomRow": 4,
    "type": "TEXT_WIDGET",
    "hideCard": false,
    "mobileRightColumn": 24,
    "animateLoading": true,
    "overflow": "NONE",
    "dynamicTriggerPathList": [],
    "fontFamily": "{{appsmith.theme.fontFamily.appFont}}",
    "dynamicBindingPathList": [
        {"key": "text"},
        {"key": "truncateButtonColor"},
        {"key": "fontFamily"},
        {"key": "borderRadius"},
        {"key": "text"}
    ],
    "leftColumn": 47,
    "shouldTruncate": false,
    "truncateButtonColor": "{{appsmith.theme.colors.primaryColor}}",
    "text": "{{currentItem.id}}",
    "key": "hxc6y0hhs1",
    "isDeprecated": false,
    "rightColumn": 53,
    "textAlign": "LEFT",
    "dynamicHeight": "FIXED",
    "widgetId": "d04pg60rmf",
    "minWidth": 450,
    "isVisible": false,
    "fontStyle": "BOLD",
    "textColor": "#231F20",
    "version": 1,
    "parentId": "ihu89yz5gd",
    "tags": [
        "Suggested",
        "Content"
    ],
    "renderMode": "CANVAS",
    "isLoading": false,
    "mobileTopRow": 4,
    "responsiveBehavior": "fill",
    "borderRadius": "{{appsmith.theme.borderRadius.appBorderRadius}}",
    "mobileLeftColumn": 16,
    "maxDynamicHeight": 9000,
    "fontSize": "0.875rem",
    "textStyle": "BODY",
    "minDynamicHeight": 4
}