{
    "boxShadow": "{{appsmith.theme.boxShadow.appBoxShadow}}",
    "requiresFlatWidgetChildren": true,
    "isCanvas": true,
    "templateHeight": 160,
    "iconSVG": "/static/media/icon.5c9511142b3624c7491c5442e8ccd0ef.svg",
    "topRow": 13,
    "pageSize": 4,
    "type": "LIST_WIDGET_V2",
    "itemSpacing": "4",
    "animateLoading": true,
    "dynamicBindingPathList": [
        {"key": "currentItemsView"},
        {"key": "selectedItemView"},
        {"key": "triggeredItemView"},
        {"key": "primaryKeys"},
        {"key": "accentColor"},
        {"key": "borderRadius"},
        {"key": "boxShadow"},
        {"key": "listData"}
    ],
    "leftColumn": 1,
    "enhancements": true,
    "children": [{
        "boxShadow": "{{appsmith.theme.boxShadow.appBoxShadow}}",
        "mobileBottomRow": 400,
        "widgetName": "Canvas17",
        "displayName": "Canvas",
        "topRow": 0,
        "bottomRow": 300,
        "parentRowSpace": 1,
        "type": "CANVAS_WIDGET",
        "canExtend": false,
        "hideCard": true,
        "dropDisabled": true,
        "openParentPropertyPane": true,
        "minHeight": 400,
        "mobileRightColumn": 396.5510559082031,
        "noPad": true,
        "parentColumnSpace": 1,
        "leftColumn": 0,
        "dynamicBindingPathList": [
            {"key": "borderRadius"},
            {"key": "boxShadow"}
        ],
        "key": "xxs9al7mgf",
        "isDeprecated": false,
        "rightColumn": 396.5510559082031,
        "detachFromLayout": true,
        "dynamicHeight": "AUTO_HEIGHT",
        "widgetId": "xr4tm1a34i",
        "containerStyle": "none",
        "minWidth": 450,
        "isVisible": true,
        "version": 1,
        "parentId": "vib36llyju",
        "renderMode": "CANVAS",
        "isLoading": false,
        "mobileTopRow": 0,
        "responsiveBehavior": "fill",
        "borderRadius": "{{appsmith.theme.borderRadius.appBorderRadius}}",
        "mobileLeftColumn": 0,
        "maxDynamicHeight": 9000,
        "minDynamicHeight": 4,
        "flexLayers": []
    }],
    "flexVerticalAlignment": "start",
    "itemBackgroundColor": "#FFFFFF",
    "accentColor": "{{appsmith.theme.colors.primaryColor}}",
    "isVisible": true,
    "tags": [
        "Suggested",
        "Display"
    ],
    "hasMetaWidgets": true,
    "isLoading": false,
    "mainCanvasId": "xr4tm1a34i",
    "borderRadius": "{{appsmith.theme.borderRadius.appBorderRadius}}",
    "originalBottomRow": 44,
    "additionalStaticProps": [
        "level",
        "levelData",
        "prefixMetaWidgetId",
        "metaWidgetId"
    ],
    "mobileBottomRow": 45,
    "currentItemsView": "{{[]}}",
    "triggeredItemView": "{{{}}}",
    "widgetName": "List1",
    "listData": "{{FilesInit.otherFilesInit()}}",
    "displayName": "List",
    "bottomRow": 43,
    "parentRowSpace": 10,
    "hideCard": false,
    "mobileRightColumn": 25,
    "mainContainerId": "0bvqrbx91x",
    "primaryKeys": "{{List1.listData.map((currentItem, currentIndex) => currentItem[\"id\"] )}}",
    "parentColumnSpace": 16.522960662841797,
    "dynamicTriggerPathList": [],
    "gridType": "vertical",
    "key": "ow4rdd809o",
    "backgroundColor": "transparent",
    "isDeprecated": false,
    "rightColumn": 41,
    "widgetId": "vib36llyju",
    "minWidth": 450,
    "parentId": "r6igzwsijv",
    "renderMode": "CANVAS",
    "mobileTopRow": 5,
    "responsiveBehavior": "fill",
    "originalTopRow": 14,
    "mobileLeftColumn": 1,
    "selectedItemView": "{{{}}}"
}