{
    "resetFormOnClick": false,
    "boxShadow": "none",
    "mobileBottomRow": 5,
    "widgetName": "ButtonAppSave",
    "onClick": "{{ApplicationInit.onSave();}}",
    "buttonColor": "#22c55e",
    "dynamicPropertyPathList": [
        {"key": "isDisabled"},
        {"key": "onClick"}
    ],
    "displayName": "Button",
    "iconSVG": "/static/media/icon.05d209fafeb13a8569e3b4e97069d9ee.svg",
    "searchTags": [
        "click",
        "submit"
    ],
    "topRow": 2,
    "bottomRow": 6,
    "parentRowSpace": 10,
    "type": "BUTTON_WIDGET",
    "hideCard": false,
    "mobileRightColumn": 45,
    "animateLoading": true,
    "parentColumnSpace": 16.541290283203125,
    "dynamicTriggerPathList": [{"key": "onClick"}],
    "leftColumn": 27,
    "dynamicBindingPathList": [
        {"key": "borderRadius"},
        {"key": "isDisabled"}
    ],
    "text": "Зберегти",
    "isDisabled": "{{!ApplicationInit.disable()|| ApplicationInit.state === 'Погоджена' || ApplicationInit.state === 'Відхилена' }}",
    "key": "zcgkox9lal",
    "isDeprecated": false,
    "rightColumn": 36,
    "isDefaultClickDisabled": true,
    "widgetId": "mmbwd44j51",
    "minWidth": 120,
    "isVisible": true,
    "recaptchaType": "V3",
    "version": 1,
    "parentId": "0w1pqanjgh",
    "tags": ["Buttons"],
    "renderMode": "CANVAS",
    "isLoading": false,
    "mobileTopRow": 1,
    "responsiveBehavior": "hug",
    "disabledWhenInvalid": false,
    "borderRadius": "{{appsmith.theme.borderRadius.appBorderRadius}}",
    "mobileLeftColumn": 29,
    "buttonVariant": "PRIMARY",
    "placement": "CENTER"
}