{
    "boxShadow": "{{appsmith.theme.boxShadow.appBoxShadow}}",
    "mobileBottomRow": 49,
    "borderColor": "#E0DEDE",
    "widgetName": "Form1",
    "isCanvas": true,
    "displayName": "Form",
    "iconSVG": "/static/media/icon.e17c486a34778f3bae299c9110e00cf6.svg",
    "searchTags": ["group"],
    "topRow": 1,
    "bottomRow": 184,
    "parentRowSpace": 10,
    "type": "FORM_WIDGET",
    "hideCard": false,
    "shouldScrollContents": true,
    "mobileRightColumn": 25,
    "animateLoading": true,
    "parentColumnSpace": 18.26171875,
    "leftColumn": 0,
    "dynamicBindingPathList": [
        {"key": "borderRadius"},
        {"key": "boxShadow"}
    ],
    "children": [{
        "boxShadow": "{{appsmith.theme.boxShadow.appBoxShadow}}",
        "mobileBottomRow": 400,
        "widgetName": "Canvas25",
        "displayName": "Canvas",
        "topRow": 0,
        "bottomRow": 1830,
        "parentRowSpace": 1,
        "type": "CANVAS_WIDGET",
        "canExtend": false,
        "hideCard": true,
        "minHeight": 400,
        "mobileRightColumn": 438.28125,
        "parentColumnSpace": 1,
        "leftColumn": 0,
        "dynamicBindingPathList": [
            {"key": "borderRadius"},
            {"key": "boxShadow"}
        ],
        "key": "bui6ievbj4",
        "isDeprecated": false,
        "rightColumn": 438.28125,
        "detachFromLayout": true,
        "dynamicHeight": "AUTO_HEIGHT",
        "widgetId": "0w1pqanjgh",
        "containerStyle": "none",
        "minWidth": 450,
        "isVisible": true,
        "version": 1,
        "parentId": "8t5ox67rax",
        "renderMode": "CANVAS",
        "isLoading": false,
        "mobileTopRow": 0,
        "responsiveBehavior": "fill",
        "borderRadius": "{{appsmith.theme.borderRadius.appBorderRadius}}",
        "mobileLeftColumn": 0,
        "maxDynamicHeight": 9000,
        "minDynamicHeight": 4,
        "flexLayers": []
    }],
    "borderWidth": "1",
    "positioning": "fixed",
    "flexVerticalAlignment": "stretch",
    "key": "053rbjzdw0",
    "backgroundColor": "#FFFFFF",
    "isDeprecated": false,
    "rightColumn": 64,
    "dynamicHeight": "AUTO_HEIGHT",
    "widgetId": "8t5ox67rax",
    "minWidth": 450,
    "isVisible": true,
    "parentId": "0",
    "tags": ["Layout"],
    "renderMode": "CANVAS",
    "isLoading": false,
    "mobileTopRow": 9,
    "responsiveBehavior": "fill",
    "originalTopRow": 1,
    "borderRadius": "{{appsmith.theme.borderRadius.appBorderRadius}}",
    "mobileLeftColumn": 1,
    "maxDynamicHeight": 9000,
    "originalBottomRow": 100,
    "minDynamicHeight": 10
}