{
    "boxShadow": "none",
    "iconSVG": "/static/media/icon.f2c34197dbcf03595098986de898928f.svg",
    "topRow": 11,
    "labelWidth": 5,
    "type": "INPUT_WIDGET_V2",
    "animateLoading": true,
    "resetOnSubmit": true,
    "leftColumn": 1,
    "dynamicBindingPathList": [
        {"key": "accentColor"},
        {"key": "borderRadius"},
        {"key": "defaultText"}
    ],
    "labelStyle": "",
    "inputType": "NUMBER",
    "isDisabled": true,
    "isRequired": false,
    "dynamicHeight": "FIXED",
    "accentColor": "{{appsmith.theme.colors.primaryColor}}",
    "showStepArrows": false,
    "isVisible": true,
    "version": 2,
    "tags": [
        "Suggested",
        "Inputs"
    ],
    "isLoading": false,
    "borderRadius": "{{appsmith.theme.borderRadius.appBorderRadius}}",
    "originalBottomRow": 19,
    "mobileBottomRow": 18,
    "widgetName": "InputTempSalaryUSD",
    "displayName": "Input",
    "searchTags": [
        "form",
        "text input",
        "number",
        "textarea"
    ],
    "bottomRow": 18,
    "parentRowSpace": 10,
    "autoFocus": false,
    "hideCard": false,
    "mobileRightColumn": 21,
    "parentColumnSpace": 14.988284558057785,
    "dynamicTriggerPathList": [],
    "labelPosition": "Top",
    "key": "h6uwv22i3y",
    "labelTextSize": "0.875rem",
    "isDeprecated": false,
    "rightColumn": 30,
    "widgetId": "5wqnxyt2rv",
    "minWidth": 450,
    "label": "В у.о",
    "parentId": "weewkxi53m",
    "labelAlignment": "left",
    "renderMode": "CANVAS",
    "mobileTopRow": 11,
    "responsiveBehavior": "fill",
    "originalTopRow": 12,
    "mobileLeftColumn": 1,
    "maxDynamicHeight": 9000,
    "shouldAllowAutofill": false,
    "iconAlign": "left",
    "defaultText": "{{CalculateTempSalary.data  === undefined ? ApplicationInit.appVars.trialSalaryUSD : CalculateTempSalary.data.rate}}",
    "minDynamicHeight": 4
}