{
    "boxShadow": "0 1px 3px 0 rgba(0, 0, 0, 0.1), 0 1px 2px 0 rgba(0, 0, 0, 0.06)",
    "mobileBottomRow": 13,
    "widgetName": "ImageAppCandidatePhoto",
    "displayName": "Image",
    "iconSVG": "/static/media/icon.69b0f0dd810281fbd6e34fc2c3f39344.svg",
    "topRow": 6,
    "bottomRow": 30,
    "parentRowSpace": 10,
    "type": "IMAGE_WIDGET",
    "hideCard": false,
    "mobileRightColumn": 63,
    "animateLoading": true,
    "parentColumnSpace": 15.794358253479004,
    "dynamicTriggerPathList": [],
    "imageShape": "RECTANGLE",
    "leftColumn": 50,
    "dynamicBindingPathList": [
        {"key": "borderRadius"},
        {"key": "image"}
    ],
    "defaultImage": "",
    "flexVerticalAlignment": "start",
    "key": "mqc1rk52zh",
    "image": "{{ApplicationInit.photoInit()}}",
    "isDeprecated": false,
    "rightColumn": 63,
    "objectFit": "cover",
    "widgetId": "b9m7dokthi",
    "isVisible": true,
    "version": 1,
    "parentId": "w0qb1n4hgh",
    "tags": ["Media"],
    "renderMode": "CANVAS",
    "isLoading": false,
    "mobileTopRow": 1,
    "maxZoomLevel": 1,
    "enableDownload": false,
    "borderRadius": "{{appsmith.theme.borderRadius.appBorderRadius}}",
    "mobileLeftColumn": 51,
    "enableRotation": false
}