{
    "boxShadow": "none",
    "iconSVG": "/static/media/icon.f2c34197dbcf03595098986de898928f.svg",
    "topRow": 34,
    "labelWidth": 5,
    "type": "INPUT_WIDGET_V2",
    "animateLoading": true,
    "resetOnSubmit": true,
    "leftColumn": 1,
    "dynamicBindingPathList": [
        {"key": "accentColor"},
        {"key": "borderRadius"},
        {"key": "defaultText"},
        {"key": "isDisabled"}
    ],
    "labelStyle": "",
    "inputType": "TEXT",
    "isDisabled": "{{ApplicationInit.state === 'Відхилена'|| ApplicationInit.state === 'Погоджена' || !ApplicationInit.disable()}}",
    "isRequired": true,
    "dynamicHeight": "FIXED",
    "accentColor": "{{appsmith.theme.colors.primaryColor}}",
    "showStepArrows": false,
    "isVisible": true,
    "version": 2,
    "tags": [
        "Suggested",
        "Inputs"
    ],
    "isLoading": false,
    "borderRadius": "{{appsmith.theme.borderRadius.appBorderRadius}}",
    "originalBottomRow": 42,
    "mobileBottomRow": 39,
    "widgetName": "InputAppCandidateRegularAddres",
    "dynamicPropertyPathList": [{"key": "isDisabled"}],
    "displayName": "Input",
    "searchTags": [
        "form",
        "text input",
        "number",
        "textarea"
    ],
    "bottomRow": 41,
    "parentRowSpace": 10,
    "autoFocus": false,
    "hideCard": false,
    "mobileRightColumn": 20,
    "parentColumnSpace": 15.794358253479004,
    "dynamicTriggerPathList": [],
    "labelPosition": "Top",
    "key": "h6uwv22i3y",
    "labelTextSize": "0.875rem",
    "isDeprecated": false,
    "rightColumn": 63,
    "widgetId": "tsgk38eatg",
    "minWidth": 450,
    "label": "Адреса фактичного проживання",
    "parentId": "w0qb1n4hgh",
    "labelAlignment": "left",
    "renderMode": "CANVAS",
    "mobileTopRow": 32,
    "responsiveBehavior": "fill",
    "originalTopRow": 35,
    "mobileLeftColumn": 0,
    "maxDynamicHeight": 9000,
    "iconAlign": "left",
    "defaultText": "{{ApplicationInit.appVars.actualAddress}}",
    "minDynamicHeight": 4
}