{
    "boxShadow": "none",
    "mobileBottomRow": 13,
    "widgetName": "FilePicker2",
    "buttonColor": "#22c55e",
    "dynamicPropertyPathList": [
        {"key": "isDisabled"},
        {"key": "onFilesSelected"}
    ],
    "iconSVG": "/static/media/icon.715769b31db833b32f40d9c90ec02de3.svg",
    "displayName": "FilePicker",
    "topRow": 9,
    "searchTags": ["upload"],
    "bottomRow": 13,
    "parentRowSpace": 10,
    "type": "FILE_PICKER_WIDGET_V2",
    "allowedFileTypes": [],
    "hideCard": false,
    "mobileRightColumn": 58,
    "animateLoading": true,
    "parentColumnSpace": 16.522960662841797,
    "dynamicTriggerPathList": [{"key": "onFilesSelected"}],
    "leftColumn": 1,
    "dynamicBindingPathList": [
        {"key": "borderRadius"},
        {"key": "isDisabled"}
    ],
    "isDisabled": "{{!CheckboxOtherDocs.isChecked ||ApplicationInit.state === 'Відхилена'|| ApplicationInit.state === 'Погоджена'||!ApplicationInit.disable() }}",
    "key": "8dbsc903pf",
    "onFilesSelected": "{{FilesInit.onOtherFileUplod()}}",
    "isRequired": false,
    "isDeprecated": false,
    "rightColumn": 20,
    "isDefaultClickDisabled": true,
    "widgetId": "9aqiinyhfz",
    "minWidth": 120,
    "isVisible": true,
    "label": "Додати",
    "maxFileSize": 5,
    "dynamicTyping": true,
    "version": 1,
    "fileDataType": "Base64",
    "parentId": "r6igzwsijv",
    "tags": ["Inputs"],
    "isLoading": false,
    "selectedFiles": [],
    "renderMode": "CANVAS",
    "mobileTopRow": 9,
    "responsiveBehavior": "hug",
    "originalTopRow": 10,
    "borderRadius": "{{appsmith.theme.borderRadius.appBorderRadius}}",
    "mobileLeftColumn": 42,
    "originalBottomRow": 14,
    "files": [],
    "maxNumFiles": 1
}