{
    "boxShadow": "{{appsmith.theme.boxShadow.appBoxShadow}}",
    "mobileBottomRow": 52,
    "widgetName": "Container12Copy",
    "borderColor": "#E0DEDE",
    "isCanvas": true,
    "displayName": "Container",
    "iconSVG": "/static/media/icon.daebf68875b6c8e909e9e8ac8bee0c02.svg",
    "searchTags": [
        "div",
        "parent",
        "group"
    ],
    "topRow": 83,
    "bottomRow": 111,
    "parentRowSpace": 10,
    "type": "CONTAINER_WIDGET",
    "hideCard": false,
    "shouldScrollContents": true,
    "mobileRightColumn": 25,
    "animateLoading": true,
    "parentColumnSpace": 17.3785400390625,
    "dynamicTriggerPathList": [],
    "leftColumn": 1,
    "dynamicBindingPathList": [
        {"key": "borderRadius"},
        {"key": "boxShadow"}
    ],
    "children": [{
        "boxShadow": "{{appsmith.theme.boxShadow.appBoxShadow}}",
        "mobileBottomRow": 100,
        "widgetName": "Canvas15Copy",
        "displayName": "Canvas",
        "topRow": 0,
        "bottomRow": 280,
        "parentRowSpace": 1,
        "type": "CANVAS_WIDGET",
        "canExtend": false,
        "hideCard": true,
        "minHeight": 100,
        "mobileRightColumn": 417.0849609375,
        "parentColumnSpace": 1,
        "leftColumn": 0,
        "dynamicBindingPathList": [
            {"key": "borderRadius"},
            {"key": "boxShadow"}
        ],
        "key": "xxs9al7mgf",
        "isDeprecated": false,
        "rightColumn": 417.0849609375,
        "detachFromLayout": true,
        "dynamicHeight": "AUTO_HEIGHT",
        "widgetId": "deioqyb5le",
        "containerStyle": "none",
        "minWidth": 450,
        "isVisible": true,
        "version": 1,
        "parentId": "aqqgblb6p6",
        "renderMode": "CANVAS",
        "isLoading": false,
        "mobileTopRow": 0,
        "responsiveBehavior": "fill",
        "borderRadius": "{{appsmith.theme.borderRadius.appBorderRadius}}",
        "mobileLeftColumn": 0,
        "maxDynamicHeight": 9000,
        "minDynamicHeight": 4,
        "flexLayers": []
    }],
    "borderWidth": "1",
    "flexVerticalAlignment": "stretch",
    "key": "wwce0oo8z2",
    "backgroundColor": "#FFFFFF",
    "isDeprecated": false,
    "rightColumn": 63,
    "dynamicHeight": "AUTO_HEIGHT",
    "widgetId": "aqqgblb6p6",
    "containerStyle": "card",
    "minWidth": 450,
    "isVisible": true,
    "version": 1,
    "parentId": "ef3024nt8m",
    "tags": ["Layout"],
    "renderMode": "CANVAS",
    "isLoading": false,
    "mobileTopRow": 42,
    "responsiveBehavior": "fill",
    "originalTopRow": 83,
    "borderRadius": "{{appsmith.theme.borderRadius.appBorderRadius}}",
    "mobileLeftColumn": 1,
    "maxDynamicHeight": 9000,
    "originalBottomRow": 111,
    "minDynamicHeight": 10
}