{
    "boxShadow": "none",
    "dateFormat": "DD-MM-YYYY",
    "iconSVG": "/static/media/icon.c0c4b770ee1862b73198267331d1611c.svg",
    "topRow": 8,
    "labelWidth": 5,
    "type": "DATE_PICKER_WIDGET2",
    "animateLoading": true,
    "leftColumn": 21,
    "dynamicBindingPathList": [
        {"key": "accentColor"},
        {"key": "borderRadius"},
        {"key": "isDisabled"},
        {"key": "defaultDate"}
    ],
    "isDisabled": "{{CheckboxRNKOPP.isChecked === false||ApplicationInit.state === 'Відхилена'|| ApplicationInit.state === 'Погоджена'|| !ApplicationInit.disable()}}",
    "isRequired": true,
    "dynamicHeight": "FIXED",
    "accentColor": "{{appsmith.theme.colors.primaryColor}}",
    "isVisible": true,
    "datePickerType": "DATE_PICKER",
    "version": 2,
    "tags": ["Inputs"],
    "isLoading": false,
    "timePrecision": "None",
    "borderRadius": "{{appsmith.theme.borderRadius.appBorderRadius}}",
    "originalBottomRow": 36,
    "closeOnSelection": true,
    "mobileBottomRow": 30,
    "widgetName": "DatePickerRNKOPPValidUntil",
    "minDate": "1920-12-31T18:30:00.000Z",
    "dynamicPropertyPathList": [
        {"key": "isDisabled"},
        {"key": "defaultDate"}
    ],
    "displayName": "DatePicker",
    "searchTags": ["calendar"],
    "bottomRow": 15,
    "shortcuts": false,
    "parentRowSpace": 10,
    "hideCard": false,
    "mobileRightColumn": 41,
    "parentColumnSpace": 16.522960662841797,
    "dynamicTriggerPathList": [],
    "labelPosition": "Top",
    "key": "3tna2f4q67",
    "labelTextSize": "0.875rem",
    "defaultDate": "{{FilesInit.docs.rnkopp.valid_until}}",
    "isDeprecated": false,
    "rightColumn": 41,
    "widgetId": "bfltzx4s4l",
    "minWidth": 450,
    "label": "Дійсний до",
    "parentId": "deioqyb5le",
    "labelAlignment": "left",
    "renderMode": "CANVAS",
    "mobileTopRow": 23,
    "responsiveBehavior": "fill",
    "originalTopRow": 29,
    "mobileLeftColumn": 21,
    "maxDynamicHeight": 9000,
    "firstDayOfWeek": 0,
    "maxDate": "2121-12-31T18:29:00.000Z",
    "minDynamicHeight": 4
}