{
    "boxShadow": "none",
    "iconSVG": "/static/media/icon.f2c34197dbcf03595098986de898928f.svg",
    "topRow": 8,
    "tooltip": "Повинен складатись з не більше 10 символів",
    "labelWidth": 5,
    "type": "INPUT_WIDGET_V2",
    "maxNum": "",
    "animateLoading": true,
    "resetOnSubmit": true,
    "leftColumn": 1,
    "dynamicBindingPathList": [
        {"key": "accentColor"},
        {"key": "borderRadius"},
        {"key": "isDisabled"},
        {"key": "defaultText"}
    ],
    "labelStyle": "",
    "inputType": "NUMBER",
    "isDisabled": "{{CheckboxRNKOPP.isChecked === false||ApplicationInit.state === 'Відхилена'|| ApplicationInit.state === 'Погоджена'||!ApplicationInit.disable() }}",
    "isRequired": true,
    "dynamicHeight": "FIXED",
    "accentColor": "{{appsmith.theme.colors.primaryColor}}",
    "showStepArrows": false,
    "isVisible": true,
    "version": 2,
    "tags": [
        "Suggested",
        "Inputs"
    ],
    "isLoading": false,
    "borderRadius": "{{appsmith.theme.borderRadius.appBorderRadius}}",
    "originalBottomRow": 16,
    "mobileBottomRow": 16,
    "widgetName": "InputRNKOPPNumber",
    "dynamicPropertyPathList": [{"key": "isDisabled"}],
    "displayName": "Input",
    "searchTags": [
        "form",
        "text input",
        "number",
        "textarea"
    ],
    "bottomRow": 15,
    "parentRowSpace": 10,
    "autoFocus": false,
    "hideCard": false,
    "mobileRightColumn": 21,
    "parentColumnSpace": 16.522960662841797,
    "dynamicTriggerPathList": [],
    "labelPosition": "Top",
    "key": "cpsombmqgr",
    "labelTextSize": "0.875rem",
    "isDeprecated": false,
    "rightColumn": 21,
    "widgetId": "ecw7ujj7hi",
    "minWidth": 450,
    "label": "Номер",
    "parentId": "deioqyb5le",
    "labelAlignment": "left",
    "renderMode": "CANVAS",
    "mobileTopRow": 9,
    "responsiveBehavior": "fill",
    "originalTopRow": 9,
    "mobileLeftColumn": 1,
    "maxDynamicHeight": 9000,
    "shouldAllowAutofill": false,
    "iconAlign": "left",
    "defaultText": "{{FilesInit.docs.rnkopp.id_card_number}}",
    "minDynamicHeight": 4
}