{
  "unpublishedPage": {
    "name": "Applications",
    "slug": "applications",
    "layouts": [
      {
        "viewMode": false,
        "dsl": {
          "widgetName": "MainContainer",
          "backgroundColor": "none",
          "rightColumn": 4896,
          "snapColumns": 64,
          "detachFromLayout": true,
          "widgetId": "0",
          "topRow": 0,
          "bottomRow": 970,
          "containerStyle": "none",
          "snapRows": 124,
          "parentRowSpace": 1,
          "type": "CANVAS_WIDGET",
          "canExtend": true,
          "version": 87,
          "minHeight": 1292,
          "dynamicTriggerPathList": [],
          "parentColumnSpace": 1,
          "dynamicBindingPathList": [],
          "leftColumn": 0
        },
        "layoutOnLoadActions": [
          [
            {
              "id": "Applications_ApplicationsInit.getApplications",
              "name": "ApplicationsInit.getApplications",
              "collectionId": "Applications_ApplicationsInit",
              "confirmBeforeExecute": false,
              "pluginType": "JS",
              "jsonPathKeys": [
                "async function () {\n  await GetProcessess.run();\n}"
              ],
              "timeoutInMillisecond": 10000
            },
            {
              "id": "Applications_ApplicationsInit.isInSession",
              "name": "ApplicationsInit.isInSession",
              "collectionId": "Applications_ApplicationsInit",
              "confirmBeforeExecute": false,
              "pluginType": "JS",
              "jsonPathKeys": [
                "async function () {\n  if (!appsmith.store.isLogin) navigateTo('Login');\n}"
              ],
              "timeoutInMillisecond": 10000
            }
          ]
        ],
        "layoutOnLoadActionErrors": [],
        "validOnPageLoadActions": true,
        "id": "Applications",
        "deleted": false,
        "policies": [],
        "userPermissions": []
      }
    ],
    "userPermissions": [],
    "policies": [],
    "isHidden": true
  },
  "deleted": false,
  "gitSyncId": "6578281c4627de0a8c1182a3_6578281c4627de0a8c1182a5"
}