{
  "unpublishedCollection": {
    "name": "ApplicationInit",
    "pageId": "Application",
    "pluginId": "js-plugin",
    "pluginType": "JS",
    "actions": [],
    "archivedActions": [],
    "variables": [
      {
        "name": "appVars",
        "value": "[]"
      },
      {
        "name": "stateNew",
        "value": "''"
      },
      {
        "name": "applicationNumber",
        "value": "''"
      },
      {
        "name": "applicationCreateDate",
        "value": "''"
      },
      {
        "name": "applicationType",
        "value": "''"
      },
      {
        "name": "initiatorName",
        "value": "''"
      },
      {
        "name": "coordinationList",
        "value": "[]"
      },
      {
        "name": "photoId",
        "value": "''"
      },
      {
        "name": "assignee",
        "value": "''"
      },
      {
        "name": "state",
        "value": "''"
      },
      {
        "name": "offerFileId",
        "value": "''"
      },
      {
        "name": "interviewConclusions",
        "value": "[]"
      },
      {
        "name": "interview1Date",
        "value": "null"
      },
      {
        "name": "interview2Date",
        "value": "null"
      },
      {
        "name": "isSaved",
        "value": "false"
      }
    ],
    "userPermissions": []
  },
  "id": "Application_ApplicationInit",
  "deleted": false,
  "gitSyncId": "65784b9a4627de0a8c1182c2_657884694627de0a8c1182fd"
}